﻿2017
2017-08-03
2017-08-30
K;Evaldas;Kairys;1991-08-16;2,07;C, PF;Neptūnas;TRUE;FALSE
K;Mantas;Kalnietis;1998-08-25;1,96;PG;Lietuvos Rytas;TRUE;TRUE
P;Deividas;Gailius;1992-06-03;Gydytojas
K;Adas;Juškevičius;1991-08-11;1,94;SG, PG;Neptūnas;FALSE;FALSE
K;Renaldas;Seibutis;1998-04-05;1,96;SG, SF;Lietuvos Rytas;TRUE;FALSE
P;Mindaugas;Kuzminskas;1993-08-17;Treneris
K;Eimantas;Bendžius;1993-09-07;2,07;PF, SF;Neptūnas;TRUE;FALSE
K;Rokas;Debiloidas;1939-09-01;2,00;SF;Žalgiris;TRUE;FALSE
P;Bebgaras;Želionis;1939-08-28;Masazuotojas
K;Lukas;Lekavičius;1996-07-01;1,83;PG;Lietuvos Rytas;TRUE;FALSE
K;Artūras;Gudaitis;1993-09-06;2,1;PF, C;Neptūnas;TRUE;FALSE
P;Edgaras;Ulanovas;1991-07-16;Masazuotojas
